miniproject_2/cycle.vcd
$date
	Thu Oct 09 23:59:51 2025
$end
$version
	Icarus Verilog
$end
$timescale
	10ns
$end
$scope module cycle_tb $end
$var wire 1 ! RGB_R $end
$var wire 1 " RGB_G $end
$var wire 1 # RGB_B $end
$var parameter 32 $ PWM_INTERVAL $end
$var reg 1 % clk $end
$scope module u0 $end
$var wire 1 % clk $end
$var wire 2 & state [1:0] $end
$var wire 11 ' pwm_value [10:0] $end
$var wire 1 ( pwm_out $end
$var wire 1 ! RGB_R $end
$var wire 1 " RGB_G $end
$var wire 1 # RGB_B $end
$var parameter 32 ) PWM_INTERVAL $end
$var reg 3 * RGB [2:0] $end
$scope module u1 $end
$var wire 1 % clk $end
$var parameter 32 + INC_DEC_INTERVAL $end
$var parameter 32 , INC_DEC_MAX $end
$var parameter 32 - INC_DEC_VAL $end
$var parameter 1 . PWM_DEC $end
$var parameter 1 / PWM_INC $end
$var parameter 32 0 PWM_INTERVAL $end
$var reg 14 1 count [13:0] $end
$var reg 1 2 current_state $end
$var reg 8 3 inc_dec_count [7:0] $end
$var reg 1 4 next_state $end
$var reg 11 5 pwm_value [10:0] $end
$var reg 2 6 state [1:0] $end
$var reg 1 7 time_to_inc_dec $end
$var reg 1 8 time_to_transition $end
$upscope $end
$scope module u2 $end
$var wire 1 % clk $end
$var wire 11 9 pwm_value [10:0] $end
$var wire 1 ( pwm_out $end
$var parameter 32 : PWM_INTERVAL $end
$var reg 11 ; pwm_count [10:0] $end
$upscope $end
$upscope $end
$upscope $end
$enddefinitions $end
$comment Show the parameter values. $end
$dumpall
b10010110000 :
b10010110000 0
0/
1.
b110 -
b11001000 ,
b10111011100000 +
b10010110000 )
b10010110000 $
$end
#0
$dumpvars
b0 ;
b0 9
08
07
b0 6
b0 5
14
b0 3
02
b0 1
b100 *
1(
b0 '
b0 &
0%
0#
1"
0!
$end
#4
0(
b1 1
b1 ;
1%
#8
0%
#12
1!
b101 *
b10 ;
b10 1
1%
#16
0%
#20
b11 1
b11 ;
1%
#24
0%
#28
b100 ;
b100 1
1%
#32
0%
#36
b101 1
b101 ;
1%
#40
0%
#44
b110 ;
b110 1
1%
#48
0%
#52
b111 1
b111 ;
1%
#56
0%
#60
b1000 ;
b1000 1
1%
#64
0%
#68
b1001 1
b1001 ;
1%
#72
0%
#76
b1010 ;
b1010 1
1%
#80
0%
#84
b1011 1
b1011 ;
1%
#88
0%
#92
b1100 ;
b1100 1
1%
#96
0%
#100
b1101 1
b1101 ;
1%
#104
0%
#108
b1110 ;
b1110 1
1%
#112
0%
#116
b1111 1
b1111 ;
1%
#120
0%
#124
b10000 ;
b10000 1
1%
#128
0%
#132
b10001 1
b10001 ;
1%
#136
0%
#140
b10010 ;
b10010 1
1%
#144
0%
#148
b10011 1
b10011 ;
1%
#152
0%
#156
b10100 ;
b10100 1
1%
#160
0%
#164
b10101 1
b10101 ;
1%
#168
0%
#172
b10110 ;
b10110 1
1%
#176
0%
#180
b10111 1
b10111 ;
1%
#184
0%
#188
b11000 ;
b11000 1
1%
#192
0%
#196
b11001 1
b11001 ;
1%
#200
0%
#204
b11010 ;
b11010 1
1%
#208
0%
#212
b11011 1
b11011 ;
1%
#216
0%
#220
b11100 ;
b11100 1
1%
#224
0%
#228
b11101 1
b11101 ;
1%
#232
0%
#236
b11110 ;
b11110 1
1%
#240
0%
#244
b11111 1
b11111 ;
1%
#248
0%
#252
b100000 ;
b100000 1
1%
#256
0%
#260
b100001 1
b100001 ;
1%
#264
0%
#268
b100010 ;
b100010 1
1%
#272
0%
#276
b100011 1
b100011 ;
1%
#280
0%
#284
b100100 ;
b100100 1
1%
#288
0%
#292
b100101 1
b100101 ;
1%
#296
0%
#300
b100110 ;
b100110 1
1%
#304
0%
#308
b100111 1
b100111 ;
1%
#312
0%
#316
b101000 ;
b101000 1
1%
#320
0%
#324
b101001 1
b101001 ;
1%
#328
0%
#332
b101010 ;
b101010 1
1%
#336
0%
#340
b101011 1
b101011 ;
1%
#344
0%
#348
b101100 ;
b101100 1
1%
#352
0%
#356
b101101 1
b101101 ;
1%
#360
0%
#364
b101110 ;
b101110 1
1%
#368
0%
#372
b101111 1
b101111 ;
1%
#376
0%
#380
b110000 ;
b110000 1
1%
#384
0%
#388
b110001 1
b110001 ;
1%
#392
0%
#396
b110010 ;
b110010 1
1%
#400
0%
#404
b110011 1
b110011 ;
1%
#408
0%
#412
b110100 ;
b110100 1
1%
#416
0%
#420
b110101 1
b110101 ;
1%
#424
0%
#428
b110110 ;
b110110 1
1%
#432
0%
#436
b110111 1
b110111 ;
1%
#440
0%
#444
b111000 ;
b111000 1
1%
#448
0%
#452
b111001 1
b111001 ;
1%
#456
0%
#460
b111010 ;
b111010 1
1%
#464
0%
#468
b111011 1
b111011 ;
1%
#472
0%
#476
b111100 ;
b111100 1
1%
#480
0%
#484
b111101 1
b111101 ;
1%
#488
0%
#492
b111110 ;
b111110 1
1%
#496
0%
#500
b111111 1
b111111 ;
1%
#504
0%
#508
b1000000 ;
b1000000 1
1%
#512
0%
#516
b1000001 1
b1000001 ;
1%
#520
0%
#524
b1000010 ;
b1000010 1
1%
#528
0%
#532
b1000011 1
b1000011 ;
1%
#536
0%
#540
b1000100 ;
b1000100 1
1%
#544
0%
#548
b1000101 1
b1000101 ;
1%
#552
0%
#556
b1000110 ;
b1000110 1
1%
#560
0%
#564
b1000111 1
b1000111 ;
1%
#568
0%
#572
b1001000 ;
b1001000 1
1%
#576
0%
#580
b1001001 1
b1001001 ;
1%
#584
0%
#588
b1001010 ;
b1001010 1
1%
#592
0%
#596
b1001011 1
b1001011 ;
1%
#600
0%
#604
b1001100 ;
b1001100 1
1%
#608
0%
#612
b1001101 1
b1001101 ;
1%
#616
0%
#620
b1001110 ;
b1001110 1
1%
#624
0%
#628
b1001111 1
b1001111 ;
1%
#632
0%
#636
b1010000 ;
b1010000 1
1%
#640
0%
#644
b1010001 1
b1010001 ;
1%
#648
0%
#652
b1010010 ;
b1010010 1
1%
#656
0%
#660
b1010011 1
b1010011 ;
1%
#664
0%
#668
b1010100 ;
b1010100 1
1%
#672
0%
#676
b1010101 1
b1010101 ;
1%
#680
0%
#684
b1010110 ;
b1010110 1
1%
#688
0%
#692
b1010111 1
b1010111 ;
1%
#696
0%
#700
b1011000 ;
b1011000 1
1%
#704
0%
#708
b1011001 1
b1011001 ;
1%
#712
0%
#716
b1011010 ;
b1011010 1
1%
#720
0%
#724
b1011011 1
b1011011 ;
1%
#728
0%
#732
b1011100 ;
b1011100 1
1%
#736
0%
#740
b1011101 1
b1011101 ;
1%
#744
0%
#748
b1011110 ;
b1011110 1
1%
#752
0%
#756
b1011111 1
b1011111 ;
1%
#760
0%
#764
b1100000 ;
b1100000 1
1%
#768
0%
#772
b1100001 1
b1100001 ;
1%
#776
0%
#780
b1100010 ;
b1100010 1
1%
#784
0%
#788
b1100011 1
b1100011 ;
1%
#792
0%
#796
b1100100 ;
b1100100 1
1%
#800
0%
#804
b1100101 1
b1100101 ;
1%
#808
0%
#812
b1100110 ;
b1100110 1
1%
#816
0%
#820
b1100111 1
b1100111 ;
1%
#824
0%
#828
b1101000 ;
b1101000 1
1%
#832
0%
#836
b1101001 1
b1101001 ;
1%
#840
0%
#844
b1101010 ;
b1101010 1
1%
#848
0%
#852
b1101011 1
b1101011 ;
1%
#856
0%
#860
b1101100 ;
b1101100 1
1%
#864
0%
#868
b1101101 1
b1101101 ;
1%
#872
0%
#876
b1101110 ;
b1101110 1
1%
#880
0%
#884
b1101111 1
b1101111 ;
1%
#888
0%
#892
b1110000 ;
b1110000 1
1%
#896
0%
#900
b1110001 1
b1110001 ;
1%
#904
0%
#908
b1110010 ;
b1110010 1
1%
#912
0%
#916
b1110011 1
b1110011 ;
1%
#920
0%
#924
b1110100 ;
b1110100 1
1%
#928
0%
#932
b1110101 1
b1110101 ;
1%
#936
0%
#940
b1110110 ;
b1110110 1
1%
#944
0%
#948
b1110111 1
b1110111 ;
1%
#952
0%
#956
b1111000 ;
b1111000 1
1%
#960
0%
#964
b1111001 1
b1111001 ;
1%
#968
0%
#972
b1111010 ;
b1111010 1
1%
#976
0%
#980
b1111011 1
b1111011 ;
1%
#984
0%
#988
b1111100 ;
b1111100 1
1%
#992
0%
#996
b1111101 1
b1111101 ;
1%
#1000
0%
#1004
b1111110 ;
b1111110 1
1%
#1008
0%
#1012
b1111111 1
b1111111 ;
1%
#1016
0%
#1020
b10000000 ;
b10000000 1
1%
#1024
0%
#1028
b10000001 1
b10000001 ;
1%
#1032
0%
#1036
b10000010 ;
b10000010 1
1%
#1040
0%
#1044
b10000011 1
b10000011 ;
1%
#1048
0%
#1052
b10000100 ;
b10000100 1
1%
#1056
0%
#1060
b10000101 1
b10000101 ;
1%
#1064
0%
#1068
b10000110 ;
b10000110 1
1%
#1072
0%
#1076
b10000111 1
b10000111 ;
1%
#1080
0%
#1084
b10001000 ;
b10001000 1
1%
#1088
0%
#1092
b10001001 1
b10001001 ;
1%
#1096
0%
#1100
b10001010 ;
b10001010 1
1%
#1104
0%
#1108
b10001011 1
b10001011 ;
1%
#1112
0%
#1116
b10001100 ;
b10001100 1
1%
#1120
0%
#1124
b10001101 1
b10001101 ;
1%
#1128
0%
#1132
b10001110 ;
b10001110 1
1%
#1136
0%
#1140
b10001111 1
b10001111 ;
1%
#1144
0%
#1148
b10010000 ;
b10010000 1
1%
#1152
0%
#1156
b10010001 1
b10010001 ;
1%
#1160
0%
#1164
b10010010 ;
b10010010 1
1%
#1168
0%
#1172
b10010011 1
b10010011 ;
1%
#1176
0%
#1180
b10010100 ;
b10010100 1
1%
#1184
0%
#1188
b10010101 1
b10010101 ;
1%
#1192
0%
#1196
b10010110 ;
b10010110 1
1%
#1200
0%
#1204
b10010111 1
b10010111 ;
1%
#1208
0%
#1212
b10011000 ;
b10011000 1
1%
#1216
0%
#1220
b10011001 1
b10011001 ;
1%
#1224
0%
#1228
b10011010 ;
b10011010 1
1%
#1232
0%
#1236
b10011011 1
b10011011 ;
1%
#1240
0%
#1244
b10011100 ;
b10011100 1
1%
#1248
0%
#1252
b10011101 1
b10011101 ;
1%
#1256
0%
#1260
b10011110 ;
b10011110 1
1%
#1264
0%
#1268
b10011111 1
b10011111 ;
1%
#1272
0%
#1276
b10100000 ;
b10100000 1
1%
#1280
0%
#1284
b10100001 1
b10100001 ;
1%
#1288
0%
#1292
b10100010 ;
b10100010 1
1%
#1296
0%
#1300
b10100011 1
b10100011 ;
1%
#1304
0%
#1308
b10100100 ;
b10100100 1
1%
#1312
0%
#1316
b10100101 1
b10100101 ;
1%
#1320
0%
#1324
b10100110 ;
b10100110 1
1%
#1328
0%
#1332
b10100111 1
b10100111 ;
1%
#1336
0%
#1340
b10101000 ;
b10101000 1
1%
#1344
0%
#1348
b10101001 1
b10101001 ;
1%
#1352
0%
#1356
b10101010 ;
b10101010 1
1%
#1360
0%
#1364
b10101011 1
b10101011 ;
1%
#1368
0%
#1372
b10101100 ;
b10101100 1
1%
#1376
0%
#1380
b10101101 1
b10101101 ;
1%
#1384
0%
#1388
b10101110 ;
b10101110 1
1%
#1392
0%
#1396
b10101111 1
b10101111 ;
1%
#1400
0%
#1404
b10110000 ;
b10110000 1
1%
#1408
0%
#1412
b10110001 1
b10110001 ;
1%
#1416
0%
#1420
b10110010 ;
b10110010 1
1%
#1424
0%
#1428
b10110011 1
b10110011 ;
1%
#1432
0%
#1436
b10110100 ;
b10110100 1
1%
#1440
0%
#1444
b10110101 1
b10110101 ;
1%
#1448
0%
#1452
b10110110 ;
b10110110 1
1%
#1456
0%
#1460
b10110111 1
b10110111 ;
1%
#1464
0%
#1468
b10111000 ;
b10111000 1
1%
#1472
0%
#1476
b10111001 1
b10111001 ;
1%
#1480
0%
#1484
b10111010 ;
b10111010 1
1%
#1488
0%
#1492
b10111011 1
b10111011 ;
1%
#1496
0%
#1500
b10111100 ;
b10111100 1
1%
#1504
0%
#1508
b10111101 1
b10111101 ;
1%
#1512
0%
#1516
b10111110 ;
b10111110 1
1%
#1520
0%
#1524
b10111111 1
b10111111 ;
1%
#1528
0%
#1532
b11000000 ;
b11000000 1
1%
#1536
0%
#1540
b11000001 1
b11000001 ;
1%
#1544
0%
#1548
b11000010 ;
b11000010 1
1%
#1552
0%
#1556
b11000011 1
b11000011 ;
1%
#1560
0%
#1564
b11000100 ;
b11000100 1
1%
#1568
0%
#1572
b11000101 1
b11000101 ;
1%
#1576
0%
#1580
b11000110 ;
b11000110 1
1%
#1584
0%
#1588
b11000111 1
b11000111 ;
1%
#1592
0%
#1596
b11001000 ;
b11001000 1
1%
#1600
0%
#1604
b11001001 1
b11001001 ;
1%
#1608
0%
#1612
b11001010 ;
b11001010 1
1%
#1616
0%
#1620
b11001011 1
b11001011 ;
1%
#1624
0%
#1628
b11001100 ;
b11001100 1
1%
#1632
0%
#1636
b11001101 1
b11001101 ;
1%
#1640
0%
#1644
b11001110 ;
b11001110 1
1%
#1648
0%
#1652
b11001111 1
b11001111 ;
1%
#1656
0%
#1660
b11010000 ;
b11010000 1
1%
#1664
0%
#1668
b11010001 1
b11010001 ;
1%
#1672
0%
#1676
b11010010 ;
b11010010 1
1%
#1680
0%
#1684
b11010011 1
b11010011 ;
1%
#1688
0%
#1692
b11010100 ;
b11010100 1
1%
#1696
0%
#1700
b11010101 1
b11010101 ;
1%
#1704
0%
#1708
b11010110 ;
b11010110 1
1%
#1712
0%
#1716
b11010111 1
b11010111 ;
1%
#1720
0%
#1724
b11011000 ;
b11011000 1
1%
#1728
0%
#1732
b11011001 1
b11011001 ;
1%
#1736
0%
#1740
b11011010 ;
b11011010 1
1%
#1744
0%
#1748
b11011011 1
b11011011 ;
1%
#1752
0%
#1756
b11011100 ;
b11011100 1
1%
#1760
0%
#1764
b11011101 1
b11011101 ;
1%
#1768
0%
#1772
b11011110 ;
b11011110 1
1%
#1776
0%
#1780
b11011111 1
b11011111 ;
1%
#1784
0%
#1788
b11100000 ;
b11100000 1
1%
#1792
0%
#1796
b11100001 1
b11100001 ;
1%
#1800
0%
#1804
b11100010 ;
b11100010 1
1%
#1808
0%
#1812
b11100011 1
b11100011 ;
1%
#1816
0%
#1820
b11100100 ;
b11100100 1
1%
#1824
0%
#1828
b11100101 1
b11100101 ;
1%
#1832
0%
#1836
b11100110 ;
b11100110 1
1%
#1840
0%
#1844
b11100111 1
b11100111 ;
1%
#1848
0%
#1852
b11101000 ;
b11101000 1
1%
#1856
0%
#1860
b11101001 1
b11101001 ;
1%
#1864
0%
#1868
b11101010 ;
b11101010 1
1%
#1872
0%
#1876
b11101011 1
b11101011 ;
1%
#1880
0%
#1884
b11101100 ;
b11101100 1
1%
#1888
0%
#1892
b11101101 1
b11101101 ;
1%
#1896
0%
#1900
b11101110 ;
b11101110 1
1%
#1904
0%
#1908
b11101111 1
b11101111 ;
1%
#1912
0%
#1916
b11110000 ;
b11110000 1
1%
#1920
0%
#1924
b11110001 1
b11110001 ;
1%
#1928
0%
#1932
b11110010 ;
b11110010 1
1%
#1936
0%
#1940
b11110011 1
b11110011 ;
1%
#1944
0%
#1948
b11110100 ;
b11110100 1
1%
#1952
0%
#1956
b11110101 1
b11110101 ;
1%
#1960
0%
#1964
b11110110 ;
b11110110 1
1%
#1968
0%
#1972
b11110111 1
b11110111 ;
1%
#1976
0%
#1980
b11111000 ;
b11111000 1
1%
#1984
0%
#1988
b11111001 1
b11111001 ;
1%
#1992
0%
#1996
b11111010 ;
b11111010 1
1%
#2000
0%
#2004
b11111011 1
b11111011 ;
1%
#2008
0%
#2012
b11111100 ;
b11111100 1
1%
#2016
0%
#2020
b11111101 1
b11111101 ;
1%
#2024
0%
#2028
b11111110 ;
b11111110 1
1%
#2032
0%
#2036
b11111111 1
b11111111 ;
1%
#2040
0%
#2044
b100000000 ;
b100000000 1
1%
#2048
0%
#2052
b100000001 1
b100000001 ;
1%
#2056
0%
#2060
b100000010 ;
b100000010 1
1%
#2064
0%
#2068
b100000011 1
b100000011 ;
1%
#2072
0%
#2076
b100000100 ;
b100000100 1
1%
#2080
0%
#2084
b100000101 1
b100000101 ;
1%
#2088
0%
#2092
b100000110 ;
b100000110 1
1%
#2096
0%
#2100
b100000111 1
b100000111 ;
1%
#2104
0%
#2108
b100001000 ;
b100001000 1
1%
#2112
0%
#2116
b100001001 1
b100001001 ;
1%
#2120
0%
#2124
b100001010 ;
b100001010 1
1%
#2128
0%
#2132
b100001011 1
b100001011 ;
1%
#2136
0%
#2140
b100001100 ;
b100001100 1
1%
#2144
0%
#2148
b100001101 1
b100001101 ;
1%
#2152
0%
#2156
b100001110 ;
b100001110 1
1%
#2160
0%
#2164
b100001111 1
b100001111 ;
1%
#2168
0%
#2172
b100010000 ;
b100010000 1
1%
#2176
0%
#2180
b100010001 1
b100010001 ;
1%
#2184
0%
#2188
b100010010 ;
b100010010 1
1%
#2192
0%
#2196
b100010011 1
b100010011 ;
1%
#2200
0%
#2204
b100010100 ;
b100010100 1
1%
#2208
0%
#2212
b100010101 1
b100010101 ;
1%
#2216
0%
#2220
b100010110 ;
b100010110 1
1%
#2224
0%
#2228
b100010111 1
b100010111 ;
1%
#2232
0%
#2236
b100011000 ;
b100011000 1
1%
#2240
0%
#2244
b100011001 1
b100011001 ;
1%
#2248
0%
#2252
b100011010 ;
b100011010 1
1%
#2256
0%
#2260
b100011011 1
b100011011 ;
1%
#2264
0%
#2268
b100011100 ;
b100011100 1
1%
#2272
0%
#2276
b100011101 1
b100011101 ;
1%
#2280
0%
#2284
b100011110 ;
b100011110 1
1%
#2288
0%
#2292
b100011111 1
b100011111 ;
1%
#2296
0%
#2300
b100100000 ;
b100100000 1
1%
#2304
0%
#2308
b100100001 1
b100100001 ;
1%
#2312
0%
#2316
b100100010 ;
b100100010 1
1%
#2320
0%
#2324
b100100011 1
b100100011 ;
1%
#2328
0%
#2332
b100100100 ;
b100100100 1
1%
#2336
0%
#2340
b100100101 1
b100100101 ;
1%
#2344
0%
#2348
b100100110 ;
b100100110 1
1%
#2352
0%
#2356
b100100111 1
b100100111 ;
1%
#2360
0%
#2364
b100101000 ;
b100101000 1
1%
#2368
0%
#2372
b100101001 1
b100101001 ;
1%
#2376
0%
#2380
b100101010 ;
b100101010 1
1%
#2384
0%
#2388
b100101011 1
b100101011 ;
1%
#2392
0%
#2396
b100101100 ;
b100101100 1
1%
#2400
0%
#2404
b100101101 1
b100101101 ;
1%
#2408
0%
#2412
b100101110 ;
b100101110 1
1%
#2416
0%
#2420
b100101111 1
b100101111 ;
1%
#2424
0%
#2428
b100110000 ;
b100110000 1
1%
#2432
0%
#2436
b100110001 1
b100110001 ;
1%
#2440
0%
#2444
b100110010 ;
b100110010 1
1%
#2448
0%
#2452
b100110011 1
b100110011 ;
1%
#2456
0%
#2460
b100110100 ;
b100110100 1
1%
#2464
0%
#2468
b100110101 1
b100110101 ;
1%
#2472
0%
#2476
b100110110 ;
b100110110 1
1%
#2480
0%
#2484
b100110111 1
b100110111 ;
1%
#2488
0%
#2492
b100111000 ;
b100111000 1
1%
#2496
0%
#2500
b100111001 1
b100111001 ;
1%
#2504
0%
#2508
b100111010 ;
b100111010 1
1%
#2512
0%
#2516
b100111011 1
b100111011 ;
1%
#2520
0%
#2524
b100111100 ;
b100111100 1
1%
#2528
0%
#2532
b100111101 1
b100111101 ;
1%
#2536
0%
#2540
b100111110 ;
b100111110 1
1%
#2544
0%
#2548
b100111111 1
b100111111 ;
1%
#2552
0%
#2556
b101000000 ;
b101000000 1
1%
#2560
0%
#2564
b101000001 1
b101000001 ;
1%
#2568
0%
#2572
b101000010 ;
b101000010 1
1%
#2576
0%
#2580
b101000011 1
b101000011 ;
1%
#2584
0%
#2588
b101000100 ;
b101000100 1
1%
#2592
0%
#2596
b101000101 1
b101000101 ;
1%
#2600
0%
#2604
b101000110 ;
b101000110 1
1%
#2608
0%
#2612
b101000111 1
b101000111 ;
1%
#2616
0%
#2620
b101001000 ;
b101001000 1
1%
#2624
0%
#2628
b101001001 1
b101001001 ;
1%
#2632
0%
#2636
b101001010 ;
b101001010 1
1%
#2640
0%
#2644
b101001011 1
b101001011 ;
1%
#2648
0%
#2652
b101001100 ;
b101001100 1
1%
#2656
0%
#2660
b101001101 1
b101001101 ;
1%
#2664
0%
#2668
b101001110 ;
b101001110 1
1%
#2672
0%
#2676
b101001111 1
b101001111 ;
1%
#2680
0%
#2684
b101010000 ;
b101010000 1
1%
#2688
0%
#2692
b101010001 1
b101010001 ;
1%
#2696
0%
#2700
b101010010 ;
b101010010 1
1%
#2704
0%
#2708
b101010011 1
b101010011 ;
1%
#2712
0%
#2716
b101010100 ;
b101010100 1
1%
#2720
0%
#2724
b101010101 1
b101010101 ;
1%
#2728
0%
#2732
b101010110 ;
b101010110 1
1%
#2736
0%
#2740
b101010111 1
b101010111 ;
1%
#2744
0%
#2748
b101011000 ;
b101011000 1
1%
#2752
0%
#2756
b101011001 1
b101011001 ;
1%
#2760
0%
#2764
b101011010 ;
b101011010 1
1%
#2768
0%
#2772
b101011011 1
b101011011 ;
1%
#2776
0%
#2780
b101011100 ;
b101011100 1
1%
#2784
0%
#2788
b101011101 1
b101011101 ;
1%
#2792
0%
#2796
b101011110 ;
b101011110 1
1%
#2800
0%
#2804
b101011111 1
b101011111 ;
1%
#2808
0%
#2812
b101100000 ;
b101100000 1
1%
#2816
0%
#2820
b101100001 1
b101100001 ;
1%
#2824
0%
#2828
b101100010 ;
b101100010 1
1%
#2832
0%
#2836
b101100011 1
b101100011 ;
1%
#2840
0%
#2844
b101100100 ;
b101100100 1
1%
#2848
0%
#2852
b101100101 1
b101100101 ;
1%
#2856
0%
#2860
b101100110 ;
b101100110 1
1%
#2864
0%
#2868
b101100111 1
b101100111 ;
1%
#2872
0%
#2876
b101101000 ;
b101101000 1
1%
#2880
0%
#2884
b101101001 1
b101101001 ;
1%
#2888
0%
#2892
b101101010 ;
b101101010 1
1%
#2896
0%
#2900
b101101011 1
b101101011 ;
1%
#2904
0%
#2908
b101101100 ;
b101101100 1
1%
#2912
0%
#2916
b101101101 1
b101101101 ;
1%
#2920
0%
#2924
b101101110 ;
b101101110 1
1%
#2928
0%
#2932
b101101111 1
b101101111 ;
1%
#2936
0%
#2940
b101110000 ;
b101110000 1
1%
#2944
0%
#2948
b101110001 1
b101110001 ;
1%
#2952
0%
#2956
b101110010 ;
b101110010 1
1%
#2960
0%
#2964
b101110011 1
b101110011 ;
1%
#2968
0%
#2972
b101110100 ;
b101110100 1
1%
#2976
0%
#2980
b101110101 1
b101110101 ;
1%
#2984
0%
#2988
b101110110 ;
b101110110 1
1%
#2992
0%
#2996
b101110111 1
b101110111 ;
1%
#3000
0%
#3004
b101111000 ;
b101111000 1
1%
#3008
0%
#3012
b101111001 1
b101111001 ;
1%
#3016
0%
#3020
b101111010 ;
b101111010 1
1%
#3024
0%
#3028
b101111011 1
b101111011 ;
1%
#3032
0%
#3036
b101111100 ;
b101111100 1
1%
#3040
0%
#3044
b101111101 1
b101111101 ;
1%
#3048
0%
#3052
b101111110 ;
b101111110 1
1%
#3056
0%
#3060
b101111111 1
b101111111 ;
1%
#3064
0%
#3068
b110000000 ;
b110000000 1
1%
#3072
0%
#3076
b110000001 1
b110000001 ;
1%
#3080
0%
#3084
b110000010 ;
b110000010 1
1%
#3088
0%
#3092
b110000011 1
b110000011 ;
1%
#3096
0%
#3100
b110000100 ;
b110000100 1
1%
#3104
0%
#3108
b110000101 1
b110000101 ;
1%
#3112
0%
#3116
b110000110 ;
b110000110 1
1%
#3120
0%
#3124
b110000111 1
b110000111 ;
1%
#3128
0%
#3132
b110001000 ;
b110001000 1
1%
#3136
0%
#3140
b110001001 1
b110001001 ;
1%
#3144
0%
#3148
b110001010 ;
b110001010 1
1%
#3152
0%
#3156
b110001011 1
b110001011 ;
1%
#3160
0%
#3164
b110001100 ;
b110001100 1
1%
#3168
0%
#3172
b110001101 1
b110001101 ;
1%
#3176
0%
#3180
b110001110 ;
b110001110 1
1%
#3184
0%
#3188
b110001111 1
b110001111 ;
1%
#3192
0%
#3196
b110010000 ;
b110010000 1
1%
#3200
0%
#3204
b110010001 1
b110010001 ;
1%
#3208
0%
#3212
b110010010 ;
b110010010 1
1%
#3216
0%
#3220
b110010011 1
b110010011 ;
1%
#3224
0%
#3228
b110010100 ;
b110010100 1
1%
#3232
0%
#3236
b110010101 1
b110010101 ;
1%
#3240
0%
#3244
b110010110 ;
b110010110 1
1%
#3248
0%
#3252
b110010111 1
b110010111 ;
1%
#3256
0%
#3260
b110011000 ;
b110011000 1
1%
#3264
0%
#3268
b110011001 1
b110011001 ;
1%
#3272
0%
#3276
b110011010 ;
b110011010 1
1%
#3280
0%
#3284
b110011011 1
b110011011 ;
1%
#3288
0%
#3292
b110011100 ;
b110011100 1
1%
#3296
0%
#3300
b110011101 1
b110011101 ;
1%
#3304
0%
#3308
b110011110 ;
b110011110 1
1%
#3312
0%
#3316
b110011111 1
b110011111 ;
1%
#3320
0%
#3324
b110100000 ;
b110100000 1
1%
#3328
0%
#3332
b110100001 1
b110100001 ;
1%
#3336
0%
#3340
b110100010 ;
b110100010 1
1%
#3344
0%
#3348
b110100011 1
b110100011 ;
1%
#3352
0%
#3356
b110100100 ;
b110100100 1
1%
#3360
0%
#3364
b110100101 1
b110100101 ;
1%
#3368
0%
#3372
b110100110 ;
b110100110 1
1%
#3376
0%
#3380
b110100111 1
b110100111 ;
1%
#3384
0%
#3388
b110101000 ;
b110101000 1
1%
#3392
0%
#3396
b110101001 1
b110101001 ;
1%
#3400
0%
#3404
b110101010 ;
b110101010 1
1%
#3408
0%
#3412
b110101011 1
b110101011 ;
1%
#3416
0%
#3420
b110101100 ;
b110101100 1
1%
#3424
0%
#3428
b110101101 1
b110101101 ;
1%
#3432
0%
#3436
b110101110 ;
b110101110 1
1%
#3440
0%
#3444
b110101111 1
b110101111 ;
1%
#3448
0%
#3452
b110110000 ;
b110110000 1
1%
#3456
0%
#3460
b110110001 1
b110110001 ;
1%
#3464
0%
#3468
b110110010 ;
b110110010 1
1%
#3472
0%
#3476
b110110011 1
b110110011 ;
1%
#3480
0%
#3484
b110110100 ;
b110110100 1
1%
#3488
0%
#3492
b110110101 1
b110110101 ;
1%
#3496
0%
#3500
b110110110 ;
b110110110 1
1%
#3504
0%
#3508
b110110111 1
b110110111 ;
1%
#3512
0%
#3516
b110111000 ;
b110111000 1
1%
#3520
0%
#3524
b110111001 1
b110111001 ;
1%
#3528
0%
#3532
b110111010 ;
b110111010 1
1%
#3536
0%
#3540
b110111011 1
b110111011 ;
1%
#3544
0%
#3548
b110111100 ;
b110111100 1
1%
#3552
0%
#3556
b110111101 1
b110111101 ;
1%
#3560
0%
#3564
b110111110 ;
b110111110 1
1%
#3568
0%
#3572
b110111111 1
b110111111 ;
1%
#3576
0%
#3580
b111000000 ;
b111000000 1
1%
#3584
0%
#3588
b111000001 1
b111000001 ;
1%
#3592
0%
#3596
b111000010 ;
b111000010 1
1%
#3600
0%
#3604
b111000011 1
b111000011 ;
1%
#3608
0%
#3612
b111000100 ;
b111000100 1
1%
#3616
0%
#3620
b111000101 1
b111000101 ;
1%
#3624
0%
#3628
b111000110 ;
b111000110 1
1%
#3632
0%
#3636
b111000111 1
b111000111 ;
1%
#3640
0%
#3644
b111001000 ;
b111001000 1
1%
#3648
0%
#3652
b111001001 1
b111001001 ;
1%
#3656
0%
#3660
b111001010 ;
b111001010 1
1%
#3664
0%
#3668
b111001011 1
b111001011 ;
1%
#3672
0%
#3676
b111001100 ;
b111001100 1
1%
#3680
0%
#3684
b111001101 1
b111001101 ;
1%
#3688
0%
#3692
b111001110 ;
b111001110 1
1%
#3696
0%
#3700
b111001111 1
b111001111 ;
1%
#3704
0%
#3708
b111010000 ;
b111010000 1
1%
#3712
0%
#3716
b111010001 1
b111010001 ;
1%
#3720
0%
#3724
b111010010 ;
b111010010 1
1%
#3728
0%
#3732
b111010011 1
b111010011 ;
1%
#3736
0%
#3740
b111010100 ;
b111010100 1
1%
#3744
0%
#3748
b111010101 1
b111010101 ;
1%
#3752
0%
#3756
b111010110 ;
b111010110 1
1%
#3760
0%
#3764
b111010111 1
b111010111 ;
1%
#3768
0%
#3772
b111011000 ;
b111011000 1
1%
#3776
0%
#3780
b111011001 1
b111011001 ;
1%
#3784
0%
#3788
b111011010 ;
b111011010 1
1%
#3792
0%
#3796
b111011011 1
b111011011 ;
1%
#3800
0%
#3804
b111011100 ;
b111011100 1
1%
#3808
0%
#3812
b111011101 1
b111011101 ;
1%
#3816
0%
#3820
b111011110 ;
b111011110 1
1%
#3824
0%
#3828
b111011111 1
b111011111 ;
1%
#3832
0%
#3836
b111100000 ;
b111100000 1
1%
#3840
0%
#3844
b111100001 1
b111100001 ;
1%
#3848
0%
#3852
b111100010 ;
b111100010 1
1%
#3856
0%
#3860
b111100011 1
b111100011 ;
1%
#3864
0%
#3868
b111100100 ;
b111100100 1
1%
#3872
0%
#3876
b111100101 1
b111100101 ;
1%
#3880
0%
#3884
b111100110 ;
b111100110 1
1%
#3888
0%
#3892
b111100111 1
b111100111 ;
1%
#3896
0%
#3900
b111101000 ;
b111101000 1
1%
#3904
0%
#3908
b111101001 1
b111101001 ;
1%
#3912
0%
#3916
b111101010 ;
b111101010 1
1%
#3920
0%
#3924
b111101011 1
b111101011 ;
1%
#3928
0%
#3932
b111101100 ;
b111101100 1
1%
#3936
0%
#3940
b111101101 1
b111101101 ;
1%
#3944
0%
#3948
b111101110 ;
b111101110 1
1%
#3952
0%
#3956
b111101111 1
b111101111 ;
1%
#3960
0%
#3964
b111110000 ;
b111110000 1
1%
#3968
0%
#3972
b111110001 1
b111110001 ;
1%
#3976
0%
